sim/tb_cache/wave.vcd
$date
  Sat Apr 12 20:22:02 2025
$end
$version
  GHDL v0
$end
$timescale
  1 fs
$end
$scope module standard $end
$upscope $end
$scope module textio $end
$upscope $end
$scope module std_logic_1164 $end
$upscope $end
$scope module numeric_std $end
$upscope $end
$scope module math_real $end
$upscope $end
$scope module tb_cache $end
$var reg 1 ! clk $end
$var reg 1 " reset $end
$var reg 32 # addr[31:0] $end
$var reg 32 $ din[31:0] $end
$var reg 1 % we $end
$var reg 1 & re $end
$var reg 3 ' funct3[2:0] $end
$var reg 32 ( dout[31:0] $end
$var reg 1 ) sim_done $end
$scope module uut $end
$var reg 1 * clk $end
$var reg 1 + reset $end
$var reg 32 , addr[31:0] $end
$var reg 32 - din[31:0] $end
$var reg 1 . we $end
$var reg 1 / re $end
$var reg 3 0 funct3[2:0] $end
$var reg 32 1 dout[31:0] $end
$var reg 1 2 miss $end
$comment data is not handled $end
$comment tag is not handled $end
$var reg 16 3 valid[0:15] $end
$var integer 32 4 index $end
$var reg 26 5 addr_tag[25:0] $end
$var reg 1 6 hit $end
$var reg 1 7 miss_int $end
$var reg 32 8 dout_aux[31:0] $end
$var integer 32 9 byte_offset $end
$var reg 32 : word_data[31:0] $end
$var reg 8 ; byte_data[7:0] $end
$var reg 16 < half_data[15:0] $end
$var reg 4 = write_mask[3:0] $end
$var reg 1 > ram_we $end
$var reg 1 ? ram_re $end
$var reg 32 @ ram_dout[31:0] $end
$var reg 2 A state[1:0] $end
$scope module ram_inst $end
$var reg 1 B clk $end
$var reg 1 C reset $end
$var reg 1 D we $end
$var reg 1 E re $end
$var reg 32 F addr[31:0] $end
$var reg 32 G din[31:0] $end
$var reg 3 H funct3[2:0] $end
$var reg 32 I dout[31:0] $end
$comment memory is not handled $end
$var integer 32 J aligned_addr $end
$var reg 32 K dout_aux[31:0] $end
$upscope $end
$upscope $end
$upscope $end
$enddefinitions $end
#0
0!
1"
b00000000000000000000000000000000 #
b00000000000000000000000000000000 $
0%
0&
b000 '
b00000000000000000000000000000000 (
0)
0*
1+
b00000000000000000000000000000000 ,
b00000000000000000000000000000000 -
0.
0/
b000 0
b00000000000000000000000000000000 1
02
b0000000000000000 3
b0 4
b00000000000000000000000000 5
06
07
b00000000000000000000000000000000 8
b0 9
b00000000000000000000000000000000 :
b00000000 ;
b0000000000000000 <
b0000 =
0>
0?
b00000000000000000000000000000000 @
b00 A
0B
1C
0D
0E
b00000000000000000000000000000000 F
b00000000000000000000000000000000 G
b000 H
b00000000000000000000000000000000 I
b0 J
b00000000000000000000000000000000 K
#5000000
1!
1*
1B
#10000000
0!
0*
0B
#15000000
1!
0"
1*
0+
1B
0C
#20000000
0!
0*
0B
#25000000
1!
1*
1B
#30000000
0!
0*
0B
#35000000
1!
b00000000000000000000000100000000 #
b10101011110011010001001000110100 $
1%
b010 '
1*
b00000000000000000000000100000000 ,
b10101011110011010001001000110100 -
1.
b010 0
b00000000000000000000000100 5
1B
b00000000000000000000000100000000 F
b10101011110011010001001000110100 G
b010 H
b100000000 J
#40000000
0!
0*
0B
#45000000
1!
1*
b1000000000000000 3
16
b1111 =
1>
b11 A
1B
1D
#50000000
0!
0*
0B
#55000000
1!
0%
1*
0.
0>
b00 A
1B
0D
#60000000
0!
0*
0B
#65000000
1!
1*
1B
#70000000
0!
0*
0B
#75000000
1!
1&
1*
1/
1B
#80000000
0!
0*
0B
#85000000
1!
b10101011110011010001001000110100 (
1*
b10101011110011010001001000110100 1
b10101011110011010001001000110100 8
b10101011110011010001001000110100 :
1B
#90000000
0!
0*
0B
#95000000
1!
0&
1*
0/
1B
#100000000
0!
0*
0B
#105000000
1!
1*
1B
#110000000
0!
0*
0B
#115000000
1!
1*
1B
#120000000
0!
0*
0B
#125000000
1!
b00000000000000000000000100000100 #
b00000000000000000000000010000000 $
1%
b000 '
1*
b00000000000000000000000100000100 ,
b00000000000000000000000010000000 -
1.
b000 0
b1 4
06
1B
b00000000000000000000000100000100 F
b00000000000000000000000010000000 G
b000 H
b100000100 J
b00000000000000000000000000000000 K
#130000000
0!
0*
0B
#135000000
1!
1*
b1100000000000000 3
16
b0001 =
1>
b11 A
1B
1D
#140000000
0!
0*
0B
#145000000
1!
0%
1*
0.
0>
b00 A
1B
0D
#150000000
0!
0*
0B
#155000000
1!
1*
1B
#160000000
0!
0*
0B
#165000000
1!
1&
1*
1/
1B
#170000000
0!
0*
0B
#175000000
1!
b00000000000000000000000000000000 (
1*
b00000000000000000000000000000000 1
b00000000000000000000000000000000 8
b00000000000000000000000010000000 :
b10000000 ;
1B
#180000000
0!
0*
0B
#185000000
1!
0&
b11111111111111111111111110000000 (
1*
0/
b11111111111111111111111110000000 1
b11111111111111111111111110000000 8
1B
#190000000
0!
0*
0B
#195000000
1!
1*
b00000000 ;
1B
#200000000
0!
0*
0B
#205000000
1!
1*
1B
#210000000
0!
0*
0B
#215000000
1!
1&
b100 '
1*
1/
b100 0
1B
b100 H
#220000000
0!
0*
0B
#225000000
1!
b00000000000000000000000000000000 (
1*
b00000000000000000000000000000000 1
b00000000000000000000000000000000 8
b10000000 ;
1B
#230000000
0!
0*
0B
#235000000
1!
0&
b00000000000000000000000010000000 (
1*
0/
b00000000000000000000000010000000 1
b00000000000000000000000010000000 8
1B
#240000000
0!
0*
0B
#245000000
1!
1*
b00000000 ;
1B
#250000000
0!
0*
0B
#255000000
1!
1*
1B
#260000000
0!
0*
0B
#265000000
1!
b00000000000000000000000100001000 #
b00000000000000001000000000000001 $
1%
b001 '
1*
b00000000000000000000000100001000 ,
b00000000000000001000000000000001 -
1.
b001 0
b10 4
06
1B
b00000000000000000000000100001000 F
b00000000000000001000000000000001 G
b001 H
b100001000 J
b00000000000000000000000000000000 K
#270000000
0!
0*
0B
#275000000
1!
1*
b1110000000000000 3
16
b0011 =
1>
b11 A
1B
1D
#280000000
0!
0*
0B
#285000000
1!
0%
1*
0.
0>
b00 A
1B
0D
#290000000
0!
0*
0B
#295000000
1!
1*
1B
#300000000
0!
0*
0B
#305000000
1!
1&
1*
1/
1B
#310000000
0!
0*
0B
#315000000
1!
b00000000000000000000000000000000 (
1*
b00000000000000000000000000000000 1
b00000000000000000000000000000000 8
b00000000000000001000000000000001 :
b1000000000000001 <
1B
#320000000
0!
0*
0B
#325000000
1!
0&
b11111111111111111000000000000001 (
1*
0/
b11111111111111111000000000000001 1
b11111111111111111000000000000001 8
1B
#330000000
0!
0*
0B
#335000000
1!
1*
b0000000000000000 <
1B
#340000000
0!
0*
0B
#345000000
1!
1*
1B
#350000000
0!
0*
0B
#355000000
1!
1&
b101 '
1*
1/
b101 0
1B
b101 H
#360000000
0!
0*
0B
#365000000
1!
b00000000000000000000000000000000 (
1*
b00000000000000000000000000000000 1
b00000000000000000000000000000000 8
b1000000000000001 <
1B
#370000000
0!
0*
0B
#375000000
1!
0&
b00000000000000001000000000000001 (
1*
0/
b00000000000000001000000000000001 1
b00000000000000001000000000000001 8
1B
#380000000
0!
0*
0B
#385000000
1!
1*
b0000000000000000 <
1B
#390000000
0!
0*
0B
#395000000
1!
1*
1B
#400000000
0!
0*
0B
#405000000
1!
b00000000000000000000000100010000 #
b00010001001000100011001101000100 $
1%
b010 '
1*
b00000000000000000000000100010000 ,
b00010001001000100011001101000100 -
1.
b010 0
b100 4
06
1B
b00000000000000000000000100010000 F
b00010001001000100011001101000100 G
b010 H
b100010000 J
b00000000000000000000000000000000 K
#410000000
0!
0*
0B
#415000000
1!
1*
b1110100000000000 3
16
b1111 =
1>
b11 A
1B
1D
#420000000
0!
0*
0B
#425000000
1!
0%
1*
0.
0>
b00 A
1B
0D
#430000000
0!
0*
0B
#435000000
1!
1*
1B
#440000000
0!
0*
0B
#445000000
1!
b00000000000000000000000010101010 $
1%
b000 '
1*
b00000000000000000000000010101010 -
1.
b000 0
1B
b00000000000000000000000010101010 G
b000 H
b00000000000000000000000001000100 K
#450000000
0!
0*
0B
#455000000
1!
1*
b0001 =
1>
b11 A
1B
1D
#460000000
0!
0*
0B
#465000000
1!
0%
1*
0.
0>
b00 A
1B
0D
#470000000
0!
0*
0B
#475000000
1!
1*
1B
#480000000
0!
0*
0B
#485000000
1!
1&
1*
1/
1B
#490000000
0!
0*
0B
#495000000
1!
b00000000000000000000000000000000 (
1*
b00000000000000000000000000000000 1
b00000000000000000000000000000000 8
b00010001001000100011001110101010 :
b10101010 ;
1B
#500000000
0!
0*
0B
#505000000
1!
0&
b11111111111111111111111110101010 (
1*
0/
b11111111111111111111111110101010 1
b11111111111111111111111110101010 8
1B
#510000000
0!
0*
0B
#515000000
1!
1*
b00000000 ;
1B
#520000000
0!
0*
0B
#525000000
1!
1*
1B
#530000000
0!
0*
0B
#535000000
1!
b00000000000000000000000100010001 #
b00000000000000000000000010111011 $
1%
1*
b00000000000000000000000100010001 ,
b00000000000000000000000010111011 -
1.
b1 9
1B
b00000000000000000000000100010001 F
b00000000000000000000000010111011 G
b100010001 J
b00000000000000000000000000110011 K
#540000000
0!
0*
0B
#545000000
1!
1*
b0010 =
1>
b11 A
1B
1D
#550000000
0!
0*
0B
#555000000
1!
0%
1*
0.
0>
b00 A
1B
0D
#560000000
0!
0*
0B
#565000000
1!
1*
1B
#570000000
0!
0*
0B
#575000000
1!
1&
1*
1/
1B
#580000000
0!
0*
0B
#585000000
1!
b00000000000000000000000000000000 (
1*
b00000000000000000000000000000000 1
b00000000000000000000000000000000 8
b00010001001000101011101110101010 :
b10111011 ;
1B
#590000000
0!
0*
0B
#595000000
1!
0&
b11111111111111111111111110111011 (
1*
0/
b11111111111111111111111110111011 1
b11111111111111111111111110111011 8
1B
#600000000
0!
0*
0B
#605000000
1!
1*
b00000000 ;
1B
#610000000
0!
0*
0B
#615000000
1!
1*
1B
#620000000
0!
0*
0B
#625000000
1!
b00000000000000000000000100010010 #
b00000000000000000000000011001100 $
1%
1*
b00000000000000000000000100010010 ,
b00000000000000000000000011001100 -
1.
b10 9
1B
b00000000000000000000000100010010 F
b00000000000000000000000011001100 G
b100010010 J
b00000000000000000000000000100010 K
#630000000
0!
0*
0B
#635000000
1!
1*
b0100 =
1>
b11 A
1B
1D
#640000000
0!
0*
0B
#645000000
1!
0%
1*
0.
0>
b00 A
1B
0D
#650000000
0!
0*
0B
#655000000
1!
1*
1B
#660000000
0!
0*
0B
#665000000
1!
1&
1*
1/
1B
#670000000
0!
0*
0B
#675000000
1!
b00000000000000000000000000000000 (
1*
b00000000000000000000000000000000 1
b00000000000000000000000000000000 8
b00010001110011001011101110101010 :
b11001100 ;
1B
#680000000
0!
0*
0B
#685000000
1!
0&
b11111111111111111111111111001100 (
1*
0/
b11111111111111111111111111001100 1
b11111111111111111111111111001100 8
1B
#690000000
0!
0*
0B
#695000000
1!
1*
b00000000 ;
1B
#700000000
0!
0*
0B
#705000000
1!
1*
1B
#710000000
0!
0*
0B
#715000000
1!
b00000000000000000000000100010011 #
b00000000000000000000000011011101 $
1%
1*
b00000000000000000000000100010011 ,
b00000000000000000000000011011101 -
1.
b11 9
1B
b00000000000000000000000100010011 F
b00000000000000000000000011011101 G
b100010011 J
b00000000000000000000000000010001 K
#720000000
0!
0*
0B
#725000000
1!
1*
b1000 =
1>
b11 A
1B
1D
#730000000
0!
0*
0B
#735000000
1!
0%
1*
0.
0>
b00 A
1B
0D
#740000000
0!
0*
0B
#745000000
1!
1*
1B
#750000000
0!
0*
0B
#755000000
1!
1&
1*
1/
1B
#760000000
0!
0*
0B
#765000000
1!
b00000000000000000000000000000000 (
1*
b00000000000000000000000000000000 1
b00000000000000000000000000000000 8
b11011101110011001011101110101010 :
b11011101 ;
1B
#770000000
0!
0*
0B
#775000000
1!
0&
b11111111111111111111111111011101 (
1*
0/
b11111111111111111111111111011101 1
b11111111111111111111111111011101 8
1B
#780000000
0!
0*
0B
#785000000
1!
1*
b00000000 ;
1B
#790000000
0!
0*
0B
#795000000
1!
1*
1B
#800000000
0!
0*
0B
#805000000
1!
b00000000000000000000000100010000 #
1&
b010 '
1*
b00000000000000000000000100010000 ,
1/
b010 0
b0 9
1B
b00000000000000000000000100010000 F
b010 H
b100010000 J
b11011101110011001011101110101010 K
#810000000
0!
0*
0B
#815000000
1!
b11011101110011001011101110101010 (
1*
b11011101110011001011101110101010 1
b11011101110011001011101110101010 8
1B
#820000000
0!
0*
0B
#825000000
1!
0&
1*
0/
1B
#830000000
0!
0*
0B
#835000000
1!
1*
1B
#840000000
0!
0*
0B
#845000000
1!
1*
1B
#850000000
0!
0*
0B
#855000000
1!
b00000000000000000000000100100000 #
b01010101011001100111011110001000 $
1%
1*
b00000000000000000000000100100000 ,
b01010101011001100111011110001000 -
1.
b1000 4
06
1B
b00000000000000000000000100100000 F
b01010101011001100111011110001000 G
b100100000 J
b00000000000000000000000000000000 K
#860000000
0!
0*
0B
#865000000
1!
1*
b1110100010000000 3
16
b1111 =
1>
b11 A
1B
1D
#870000000
0!
0*
0B
#875000000
1!
0%
1*
0.
0>
b00 A
1B
0D
#880000000
0!
0*
0B
#885000000
1!
1*
1B
#890000000
0!
0*
0B
#895000000
1!
b00000000000000001010101010101010 $
1%
b001 '
1*
b00000000000000001010101010101010 -
1.
b001 0
1B
b00000000000000001010101010101010 G
b001 H
b00000000000000000111011110001000 K
#900000000
0!
0*
0B
#905000000
1!
1*
b0011 =
1>
b11 A
1B
1D
#910000000
0!
0*
0B
#915000000
1!
0%
1*
0.
0>
b00 A
1B
0D
#920000000
0!
0*
0B
#925000000
1!
1*
1B
#930000000
0!
0*
0B
#935000000
1!
1&
1*
1/
1B
#940000000
0!
0*
0B
#945000000
1!
b00000000000000000000000000000000 (
1*
b00000000000000000000000000000000 1
b00000000000000000000000000000000 8
b01010101011001101010101010101010 :
b1010101010101010 <
1B
#950000000
0!
0*
0B
#955000000
1!
0&
b11111111111111111010101010101010 (
1*
0/
b11111111111111111010101010101010 1
b11111111111111111010101010101010 8
1B
#960000000
0!
0*
0B
#965000000
1!
1*
b0000000000000000 <
1B
#970000000
0!
0*
0B
#975000000
1!
1*
1B
#980000000
0!
0*
0B
#985000000
1!
b00000000000000000000000100100010 #
b00000000000000001011101110111011 $
1%
1*
b00000000000000000000000100100010 ,
b00000000000000001011101110111011 -
1.
b10 9
1B
b00000000000000000000000100100010 F
b00000000000000001011101110111011 G
b100100010 J
b00000000000000000101010101100110 K
#990000000
0!
0*
0B
#995000000
1!
1*
b1100 =
1>
b11 A
1B
1D
#1000000000
0!
0*
0B
#1005000000
1!
0%
1*
0.
0>
b00 A
1B
0D
#1010000000
0!
0*
0B
#1015000000
1!
1*
1B
#1020000000
0!
0*
0B
#1025000000
1!
1&
1*
1/
1B
#1030000000
0!
0*
0B
#1035000000
1!
b00000000000000000000000000000000 (
1*
b00000000000000000000000000000000 1
b00000000000000000000000000000000 8
b10111011101110111010101010101010 :
b1011101110111011 <
1B
#1040000000
0!
0*
0B
#1045000000
1!
0&
b11111111111111111011101110111011 (
1*
0/
b11111111111111111011101110111011 1
b11111111111111111011101110111011 8
1B
#1050000000
0!
0*
0B
#1055000000
1!
1*
b0000000000000000 <
1B
#1060000000
0!
0*
0B
#1065000000
1!
1*
1B
#1070000000
0!
0*
0B
#1075000000
1!
b00000000000000000000000100100000 #
1&
b010 '
1*
b00000000000000000000000100100000 ,
1/
b010 0
b0 9
1B
b00000000000000000000000100100000 F
b010 H
b100100000 J
b10111011101110111010101010101010 K
#1080000000
0!
0*
0B
#1085000000
1!
b10111011101110111010101010101010 (
1*
b10111011101110111010101010101010 1
b10111011101110111010101010101010 8
1B
#1090000000
0!
0*
0B
#1095000000
1!
0&
1*
0/
1B
#1100000000
0!
0*
0B
#1105000000
1!
1*
1B
#1110000000
0!
0*
0B
#1115000000
1!
1*
1B
#1120000000
0!
0*
0B
#1125000000
1!
b00000000000000000000001000000000 #
1&
1*
b00000000000000000000001000000000 ,
1/
b0 4
b00000000000000000000001000 5
06
1B
b00000000000000000000001000000000 F
b1000000000 J
b00000000000000000000000000000000 K
#1130000000
0!
0*
0B
#1135000000
1!
1*
12
17
1?
b10 A
1B
1E
#1140000000
0!
0*
0B
#1145000000
1!
0&
b00000000000000000000000000000000 (
1*
0/
b00000000000000000000000000000000 1
02
16
07
b00000000000000000000000000000000 8
b00000000000000000000000000000000 :
0?
b00 A
1B
0E
#1150000000
0!
0*
0B
#1155000000
1!
1*
1B
#1160000000
0!
0*
0B
#1165000000
1!
1*
1B
#1170000000
0!
0*
0B
#1175000000
1!
1*
1B
#1180000000
0!
0*
0B
#1185000000
1!
1*
1B
#1190000000
0!
0*
0B
#1195000000
1!
1*
1B
#1200000000
0!
0*
0B
#1205000000
1!
1*
1B
#1210000000
0!
0*
0B
#1215000000
1!
1&
1*
1/
1B
#1220000000
0!
0*
0B
#1225000000
1!
1*
1B
#1230000000
0!
0*
0B
#1235000000
1!
0&
1*
0/
1B
#1240000000
0!
0*
0B
#1245000000
1!
1*
1B
#1250000000
0!
0*
0B
#1255000000
1!
1*
1B
#1260000000
0!
0*
0B
#1265000000
1!
1)
1*
1B
