sim/tb_RISCV/wave.vcd
$date
  Fri Mar  7 11:41:37 2025
$end
$version
  GHDL v0
$end
$timescale
  1 fs
$end
$scope module standard $end
$upscope $end
$scope module textio $end
$upscope $end
$scope module std_logic_1164 $end
$upscope $end
$scope module numeric_std $end
$upscope $end
$scope module std_logic_arith $end
$upscope $end
$scope module std_logic_unsigned $end
$upscope $end
$scope module tb_riscv $end
$var reg 1 ! clk $end
$var reg 1 " reset $end
$scope module dut $end
$var reg 1 # clk $end
$var reg 1 $ reset $end
$var reg 32 % inst_1[31:0] $end
$var reg 32 & pc_out_1[31:0] $end
$var reg 1 ' jump_2 $end
$var reg 1 ( alusrc_2 $end
$var reg 1 ) memtoreg_2 $end
$var reg 1 * regwrite_2 $end
$var reg 1 + memread_2 $end
$var reg 1 , memwrite_2 $end
$var reg 1 - branch_2 $end
$var reg 2 . aluop_2[1:0] $end
$var reg 32 / imm_out_2[31:0] $end
$var reg 3 0 funct_3_2[2:0] $end
$var reg 4 1 alu_inst_2[3:0] $end
$var reg 5 2 write_reg_2[4:0] $end
$var reg 32 3 read_data1_2[31:0] $end
$var reg 32 4 read_data2_2[31:0] $end
$var reg 1 5 jump_3 $end
$var reg 1 6 memtoreg_3 $end
$var reg 1 7 regwrite_3 $end
$var reg 1 8 memread_3 $end
$var reg 1 9 memwrite_3 $end
$var reg 1 : branch_3 $end
$var reg 3 ; funct_3_3[2:0] $end
$var reg 5 < write_reg_3[4:0] $end
$var reg 1 = zero_3 $end
$var reg 32 > result_3[31:0] $end
$var reg 32 ? read_data2_3[31:0] $end
$var reg 1 @ memtoreg_4 $end
$var reg 1 A regwrite_4 $end
$var reg 5 B write_reg_4[4:0] $end
$var reg 32 C result_4[31:0] $end
$var reg 32 D data_mem_4[31:0] $end
$var reg 1 E pcsrc_4 $end
$var reg 32 F immext_4[31:0] $end
$var reg 1 G nop $end
$var reg 32 H write_data_5[31:0] $end
$scope module fetch_c $end
$var reg 1 I clk $end
$var reg 1 J reset $end
$var reg 1 K branch $end
$var reg 32 L immext[31:0] $end
$var reg 32 M inst[31:0] $end
$var reg 32 N pc_out[31:0] $end
$var reg 32 O pc_out_s[31:0] $end
$var reg 32 P inst_s[31:0] $end
$scope module pc_c $end
$var reg 1 Q clk $end
$var reg 1 R reset $end
$var reg 1 S branch $end
$var reg 32 T immext[31:0] $end
$var reg 32 U pc_out[31:0] $end
$var reg 32 V pc_reg[31:0] $end
$var reg 32 W pc_next[31:0] $end
$var reg 32 X pc_plus4[31:0] $end
$upscope $end
$scope module instmem_c $end
$var reg 32 Y addr[31:0] $end
$var reg 32 Z inst[31:0] $end
$comment rom is not handled $end
$upscope $end
$scope module pipefetch_c $end
$var reg 1 [ clk $end
$var reg 1 \ reset $end
$var reg 32 ] inst_i[31:0] $end
$var reg 32 ^ pc_i[31:0] $end
$var reg 32 _ inst_o[31:0] $end
$var reg 32 ` pc_o[31:0] $end
$var reg 32 a pc_reg[31:0] $end
$var reg 32 b inst_reg[31:0] $end
$upscope $end
$upscope $end
$scope module decode_c $end
$var reg 1 c clk $end
$var reg 1 d reset $end
$var reg 32 e inst[31:0] $end
$var reg 32 f pc_val[31:0] $end
$var reg 1 g nop $end
$var reg 5 h write_reg_wb[4:0] $end
$var reg 1 i regwrite_wb $end
$var reg 32 j write_data_wb[31:0] $end
$var reg 1 k jump_o $end
$var reg 1 l alusrc_o $end
$var reg 1 m memtoreg_o $end
$var reg 1 n regwrite_o $end
$var reg 1 o memread_o $end
$var reg 1 p memwrite_o $end
$var reg 1 q branch_o $end
$var reg 2 r aluop_o[1:0] $end
$var reg 32 s imm_out_o[31:0] $end
$var reg 3 t funct_3_o[2:0] $end
$var reg 4 u alu_inst_o[3:0] $end
$var reg 5 v write_reg_o[4:0] $end
$var reg 32 w read_data1_o[31:0] $end
$var reg 32 x read_data2_o[31:0] $end
$var reg 7 y opcode_s[6:0] $end
$var reg 5 z read_reg1_s[4:0] $end
$var reg 5 { read_reg2_s[4:0] $end
$var reg 32 | inst_imm_s[31:0] $end
$var reg 1 } jump_s $end
$var reg 1 !" alusrc_s $end
$var reg 1 "" memtoreg_s $end
$var reg 1 #" regwrite_s $end
$var reg 1 $" memread_s $end
$var reg 1 %" memwrite_s $end
$var reg 1 &" branch_s $end
$var reg 2 '" aluop_s[1:0] $end
$var reg 32 (" imm_out_s[31:0] $end
$var reg 3 )" funct_3_s[2:0] $end
$var reg 4 *" alu_inst_s[3:0] $end
$var reg 5 +" write_reg_s[4:0] $end
$var reg 32 ," read_data1_s[31:0] $end
$var reg 32 -" read_data2_s[31:0] $end
$scope module instruction_c $end
$var reg 32 ." inst[31:0] $end
$var reg 7 /" opcode[6:0] $end
$var reg 5 0" read_reg1[4:0] $end
$var reg 5 1" read_reg2[4:0] $end
$var reg 5 2" write_reg[4:0] $end
$var reg 4 3" alu_inst[3:0] $end
$var reg 3 4" funct_3[2:0] $end
$var reg 32 5" inst_imm[31:0] $end
$upscope $end
$scope module controlunit_c $end
$var reg 7 6" opcode[6:0] $end
$var reg 1 7" reset $end
$var reg 1 8" nop $end
$var reg 1 9" jump $end
$var reg 1 :" alusrc $end
$var reg 1 ;" memtoreg $end
$var reg 1 <" regwrite $end
$var reg 1 =" memread $end
$var reg 1 >" memwrite $end
$var reg 1 ?" branch $end
$var reg 2 @" aluop[1:0] $end
$upscope $end
$scope module regfile_c $end
$var reg 1 A" clk $end
$var reg 1 B" reset $end
$var reg 5 C" read_reg1[4:0] $end
$var reg 5 D" read_reg2[4:0] $end
$var reg 5 E" write_reg[4:0] $end
$var reg 32 F" write_data[31:0] $end
$var reg 1 G" write_enable $end
$var reg 32 H" read_data1[31:0] $end
$var reg 32 I" read_data2[31:0] $end
$comment rf is not handled $end
$upscope $end
$scope module immgen_c $end
$var reg 32 J" instr[31:0] $end
$var reg 32 K" imm_out[31:0] $end
$var reg 32 L" imm_i[31:0] $end
$var reg 32 M" imm_s[31:0] $end
$var reg 32 N" imm_b[31:0] $end
$var reg 32 O" imm_j[31:0] $end
$var reg 32 P" imm_u[31:0] $end
$var reg 5 Q" sel[4:0] $end
$upscope $end
$scope module pipedec_c $end
$var reg 1 R" clk $end
$var reg 1 S" reset $end
$var reg 1 T" jump_i $end
$var reg 1 U" alusrc_i $end
$var reg 1 V" memtoreg_i $end
$var reg 1 W" regwrite_i $end
$var reg 1 X" memread_i $end
$var reg 1 Y" memwrite_i $end
$var reg 1 Z" branch_i $end
$var reg 2 [" aluop_i[1:0] $end
$var reg 32 \" imm_out_i[31:0] $end
$var reg 3 ]" funct_3_i[2:0] $end
$var reg 4 ^" alu_inst_i[3:0] $end
$var reg 5 _" write_reg_i[4:0] $end
$var reg 32 `" read_data1_i[31:0] $end
$var reg 32 a" read_data2_i[31:0] $end
$var reg 1 b" jump_o $end
$var reg 1 c" alusrc_o $end
$var reg 1 d" memtoreg_o $end
$var reg 1 e" regwrite_o $end
$var reg 1 f" memread_o $end
$var reg 1 g" memwrite_o $end
$var reg 1 h" branch_o $end
$var reg 2 i" aluop_o[1:0] $end
$var reg 32 j" imm_out_o[31:0] $end
$var reg 3 k" funct_3_o[2:0] $end
$var reg 4 l" alu_inst_o[3:0] $end
$var reg 5 m" write_reg_o[4:0] $end
$var reg 32 n" read_data1_o[31:0] $end
$var reg 32 o" read_data2_o[31:0] $end
$var reg 1 p" jump_reg $end
$var reg 1 q" alusrc_reg $end
$var reg 1 r" memtoreg_reg $end
$var reg 1 s" regwrite_reg $end
$var reg 1 t" memread_reg $end
$var reg 1 u" memwrite_reg $end
$var reg 1 v" branch_reg $end
$var reg 2 w" aluop_reg[1:0] $end
$var reg 32 x" imm_out_reg[31:0] $end
$var reg 3 y" funct_3_reg[2:0] $end
$var reg 4 z" alu_inst_reg[3:0] $end
$var reg 5 {" write_reg_reg[4:0] $end
$var reg 32 |" read_data1_reg[31:0] $end
$var reg 32 }" read_data2_reg[31:0] $end
$upscope $end
$upscope $end
$scope module execute_c $end
$var reg 1 !# clk $end
$var reg 1 "# reset $end
$var reg 1 ## jump_i $end
$var reg 1 $# alusrc_i $end
$var reg 1 %# memtoreg_i $end
$var reg 1 &# regwrite_i $end
$var reg 1 '# memread_i $end
$var reg 1 (# memwrite_i $end
$var reg 1 )# branch_i $end
$var reg 2 *# aluop_i[1:0] $end
$var reg 32 +# imm_out_i[31:0] $end
$var reg 3 ,# funct_3_i[2:0] $end
$var reg 4 -# alu_inst_i[3:0] $end
$var reg 5 .# write_reg_i[4:0] $end
$var reg 32 /# read_data1_i[31:0] $end
$var reg 32 0# read_data2_i[31:0] $end
$var reg 1 1# jump_o $end
$var reg 1 2# memtoreg_o $end
$var reg 1 3# regwrite_o $end
$var reg 1 4# memread_o $end
$var reg 1 5# memwrite_o $end
$var reg 1 6# branch_o $end
$var reg 3 7# funct_3_o[2:0] $end
$var reg 5 8# write_reg_o[4:0] $end
$var reg 1 9# zero_o $end
$var reg 32 :# result_o[31:0] $end
$var reg 32 ;# read_data2_o[31:0] $end
$var reg 32 <# b_input[31:0] $end
$var reg 1 =# zero_s $end
$var reg 32 ># result_s[31:0] $end
$var reg 5 ?# alu_ctrl_s[4:0] $end
$scope module alu_c $end
$var reg 32 @# a[31:0] $end
$var reg 32 A# b[31:0] $end
$var reg 5 B# alu_ctrl[4:0] $end
$var reg 32 C# result[31:0] $end
$var reg 1 D# zero $end
$var reg 32 E# alu_result[31:0] $end
$var reg 3 F# funct3[2:0] $end
$var reg 1 G# funct7b5 $end
$var reg 1 H# isbranch $end
$upscope $end
$scope module aluctrl_c $end
$var reg 4 I# alu_inst[3:0] $end
$var reg 2 J# aluop[1:0] $end
$var reg 5 K# alu_ctrl[4:0] $end
$upscope $end
$scope module pipeex_c $end
$var reg 1 L# clk $end
$var reg 1 M# reset $end
$var reg 1 N# jump_i $end
$var reg 1 O# memtoreg_i $end
$var reg 1 P# regwrite_i $end
$var reg 1 Q# memread_i $end
$var reg 1 R# memwrite_i $end
$var reg 1 S# branch_i $end
$var reg 3 T# funct_3_i[2:0] $end
$var reg 5 U# write_reg_i[4:0] $end
$var reg 1 V# zero_i $end
$var reg 32 W# result_i[31:0] $end
$var reg 32 X# read_data2_i[31:0] $end
$var reg 1 Y# jump_o $end
$var reg 1 Z# memtoreg_o $end
$var reg 1 [# regwrite_o $end
$var reg 1 \# memread_o $end
$var reg 1 ]# memwrite_o $end
$var reg 1 ^# branch_o $end
$var reg 3 _# funct_3_o[2:0] $end
$var reg 5 `# write_reg_o[4:0] $end
$var reg 1 a# zero_o $end
$var reg 32 b# result_o[31:0] $end
$var reg 32 c# read_data2_o[31:0] $end
$var reg 79 d# reg[78:0] $end
$upscope $end
$upscope $end
$scope module mem_c $end
$var reg 1 e# clk $end
$var reg 1 f# reset $end
$var reg 1 g# jump_i $end
$var reg 1 h# memtoreg_i $end
$var reg 1 i# regwrite_i $end
$var reg 1 j# memread_i $end
$var reg 1 k# memwrite_i $end
$var reg 1 l# branch_i $end
$var reg 3 m# funct_3_i[2:0] $end
$var reg 5 n# write_reg_i[4:0] $end
$var reg 1 o# zero_i $end
$var reg 32 p# result_i[31:0] $end
$var reg 32 q# read_data2_i[31:0] $end
$var reg 1 r# memtoreg_o $end
$var reg 1 s# regwrite_o $end
$var reg 5 t# write_reg_o[4:0] $end
$var reg 32 u# result_o[31:0] $end
$var reg 32 v# data_mem_o[31:0] $end
$var reg 1 w# pcsrc $end
$var reg 32 x# dout_s[31:0] $end
$var reg 1 y# pcsrc_s $end
$scope module ram_c $end
$var reg 1 z# clk $end
$var reg 1 {# reset $end
$var reg 1 |# we $end
$var reg 1 }# re $end
$var reg 32 !$ addr[31:0] $end
$var reg 32 "$ din[31:0] $end
$var reg 3 #$ funct3[2:0] $end
$var reg 32 $$ dout[31:0] $end
$comment memory is not handled $end
$var integer 32 %$ aligned_addr $end
$var reg 32 &$ dout_aux[31:0] $end
$upscope $end
$scope module pipemem_c $end
$var reg 1 '$ clk $end
$var reg 1 ($ reset $end
$var reg 1 )$ memtoreg_i $end
$var reg 1 *$ regwrite_i $end
$var reg 5 +$ write_reg_i[4:0] $end
$var reg 32 ,$ result_i[31:0] $end
$var reg 32 -$ data_mem_i[31:0] $end
$var reg 1 .$ memtoreg_o $end
$var reg 1 /$ regwrite_o $end
$var reg 5 0$ write_reg_o[4:0] $end
$var reg 32 1$ result_o[31:0] $end
$var reg 32 2$ data_mem_o[31:0] $end
$var reg 71 3$ reg[70:0] $end
$upscope $end
$upscope $end
$upscope $end
$upscope $end
$enddefinitions $end
#0
1!
1"
1#
1$
b00000000000000000000000000000000 %
b00000000000000000000000000000000 &
0'
0(
0)
0*
0+
0,
0-
b00 .
b00000000000000000000000000000000 /
b000 0
b0000 1
b00000 2
b00000000000000000000000000000000 3
b00000000000000000000000000000000 4
05
06
07
08
09
0:
b000 ;
b00000 <
0=
b00000000000000000000000000000000 >
b00000000000000000000000000000000 ?
0@
0A
b00000 B
b00000000000000000000000000000000 C
b00000000000000000000000000000000 D
0E
b00000000000000000000000000000000 F
0G
b00000000000000000000000000000000 H
1I
1J
0K
b00000000000000000000000000000000 L
b00000000000000000000000000000000 M
b00000000000000000000000000000000 N
b00000000000000000000000000000000 O
b00000000000000000000000000000000 P
1Q
1R
0S
b00000000000000000000000000000000 T
b00000000000000000000000000000000 U
b00000000000000000000000000000000 V
b00000000000000000000000000000100 W
b00000000000000000000000000000100 X
b00000000000000000000000000000000 Y
b00000000000000000000000000000000 Z
1[
1\
b00000000000000000000000000000000 ]
b00000000000000000000000000000000 ^
b00000000000000000000000000000000 _
b00000000000000000000000000000000 `
b00000000000000000000000000000000 a
b00000000000000000000000000000000 b
1c
1d
b00000000000000000000000000000000 e
b00000000000000000000000000000000 f
0g
b00000 h
0i
b00000000000000000000000000000000 j
0k
0l
0m
0n
0o
0p
0q
b00 r
b00000000000000000000000000000000 s
b000 t
b0000 u
b00000 v
b00000000000000000000000000000000 w
b00000000000000000000000000000000 x
b0000000 y
b00000 z
b00000 {
b00000000000000000000000000000000 |
0}
0!"
0""
0#"
0$"
0%"
0&"
b00 '"
b00000000000000000000000000000000 ("
b000 )"
b0000 *"
b00000 +"
bUUUUUUUUUUUUUUUUUUUUUUUUUUUUUUUU ,"
bUUUUUUUUUUUUUUUUUUUUUUUUUUUUUUUU -"
b00000000000000000000000000000000 ."
b0000000 /"
b00000 0"
b00000 1"
b00000 2"
b0000 3"
b000 4"
b00000000000000000000000000000000 5"
b0000000 6"
17"
08"
09"
0:"
0;"
0<"
0="
0>"
0?"
b00 @"
1A"
1B"
b00000 C"
b00000 D"
b00000 E"
b00000000000000000000000000000000 F"
0G"
bUUUUUUUUUUUUUUUUUUUUUUUUUUUUUUUU H"
bUUUUUUUUUUUUUUUUUUUUUUUUUUUUUUUU I"
b00000000000000000000000000000000 J"
b00000000000000000000000000000000 K"
b00000000000000000000000000000000 L"
b00000000000000000000000000000000 M"
b00000000000000000000000000000000 N"
b00000000000000000000000000000000 O"
b00000000000000000000000000000000 P"
b00000 Q"
1R"
1S"
0T"
0U"
0V"
0W"
0X"
0Y"
0Z"
b00 ["
b00000000000000000000000000000000 \"
b000 ]"
b0000 ^"
b00000 _"
bUUUUUUUUUUUUUUUUUUUUUUUUUUUUUUUU `"
bUUUUUUUUUUUUUUUUUUUUUUUUUUUUUUUU a"
0b"
0c"
0d"
0e"
0f"
0g"
0h"
b00 i"
b00000000000000000000000000000000 j"
b000 k"
b0000 l"
b00000 m"
b00000000000000000000000000000000 n"
b00000000000000000000000000000000 o"
0p"
0q"
0r"
0s"
0t"
0u"
0v"
b00 w"
b00000000000000000000000000000000 x"
b000 y"
b0000 z"
b00000 {"
b00000000000000000000000000000000 |"
b00000000000000000000000000000000 }"
1!#
1"#
0##
0$#
0%#
0&#
0'#
0(#
0)#
b00 *#
b00000000000000000000000000000000 +#
b000 ,#
b0000 -#
b00000 .#
b00000000000000000000000000000000 /#
b00000000000000000000000000000000 0#
01#
02#
03#
04#
05#
06#
b000 7#
b00000 8#
09#
b00000000000000000000000000000000 :#
b00000000000000000000000000000000 ;#
b00000000000000000000000000000000 <#
0=#
b00000000000000000000000000000000 >#
b00000 ?#
b00000000000000000000000000000000 @#
b00000000000000000000000000000000 A#
b00000 B#
b00000000000000000000000000000000 C#
0D#
b00000000000000000000000000000000 E#
b000 F#
0G#
0H#
b0000 I#
b00 J#
b00000 K#
1L#
1M#
0N#
0O#
0P#
0Q#
0R#
0S#
b000 T#
b00000 U#
0V#
b00000000000000000000000000000000 W#
b00000000000000000000000000000000 X#
0Y#
0Z#
0[#
0\#
0]#
0^#
b000 _#
b00000 `#
0a#
b00000000000000000000000000000000 b#
b00000000000000000000000000000000 c#
b0000000000000000000000000000000000000000000000000000000000000000000000000000000 d#
1e#
1f#
0g#
0h#
0i#
0j#
0k#
0l#
b000 m#
b00000 n#
0o#
b00000000000000000000000000000000 p#
b00000000000000000000000000000000 q#
0r#
0s#
b00000 t#
b00000000000000000000000000000000 u#
b00000000000000000000000000000000 v#
0w#
b00000000000000000000000000000000 x#
0y#
1z#
1{#
0|#
0}#
b00000000000000000000000000000000 !$
b00000000000000000000000000000000 "$
b000 #$
b00000000000000000000000000000000 $$
b0 %$
b00000000000000000000000000000000 &$
1'$
1($
0)$
0*$
b00000 +$
b00000000000000000000000000000000 ,$
b00000000000000000000000000000000 -$
0.$
0/$
b00000 0$
b00000000000000000000000000000000 1$
b00000000000000000000000000000000 2$
b00000000000000000000000000000000000000000000000000000000000000000000000 3$
#5000000
0!
0#
0I
0Q
0[
0c
b00000000000000000000000000000000 ,"
b00000000000000000000000000000000 -"
0A"
b00000000000000000000000000000000 H"
b00000000000000000000000000000000 I"
0R"
b00000000000000000000000000000000 `"
b00000000000000000000000000000000 a"
0!#
0L#
0e#
0z#
0'$
#10000000
1!
0"
1#
0$
1I
0J
b00000000000000000000000000000100 O
b00000000101000000000000010010011 P
1Q
0R
b00000000000000000000000000000100 U
b00000000000000000000000000000100 V
b00000000000000000000000000001000 W
b00000000000000000000000000001000 X
b00000000000000000000000000000100 Y
b00000000101000000000000010010011 Z
1[
0\
b00000000101000000000000010010011 ]
b00000000000000000000000000000100 ^
1c
0d
07"
1A"
0B"
1R"
0S"
1!#
0"#
1L#
0M#
1e#
0f#
1z#
0{#
1'$
0($
#15000000
0!
0#
0I
0Q
0[
0c
0A"
0R"
0!#
0L#
0e#
0z#
0'$
#20000000
1!
1#
b00000000101000000000000010010011 %
b00000000000000000000000000000100 &
1I
b00000000101000000000000010010011 M
b00000000000000000000000000000100 N
b00000000000000000000000000001000 O
b00000001010000000000000100010011 P
1Q
b00000000000000000000000000001000 U
b00000000000000000000000000001000 V
b00000000000000000000000000001100 W
b00000000000000000000000000001100 X
b00000000000000000000000000001000 Y
b00000001010000000000000100010011 Z
1[
b00000001010000000000000100010011 ]
b00000000000000000000000000001000 ^
b00000000101000000000000010010011 _
b00000000000000000000000000000100 `
b00000000000000000000000000000100 a
b00000000101000000000000010010011 b
1c
b00000000101000000000000010010011 e
b00000000000000000000000000000100 f
b0010011 y
b01010 {
b00000000101000000000000010010011 |
1!"
1#"
b00000000000000000000000000001010 ("
b00001 +"
b00000000101000000000000010010011 ."
b0010011 /"
b01010 1"
b00001 2"
b00000000101000000000000010010011 5"
b0010011 6"
1:"
1<"
1A"
b01010 D"
b00000000101000000000000010010011 J"
b00000000000000000000000000001010 K"
b00000000000000000000000000001010 L"
b00000000000000000000000000000001 M"
b00000000000000000000100000000000 N"
b00000000000000000000000000001010 O"
b00000000101000000000000000000000 P"
b00100 Q"
1R"
1U"
1W"
b00000000000000000000000000001010 \"
b00001 _"
1!#
1L#
1e#
1z#
1'$
#25000000
0!
0#
0I
0Q
0[
0c
0A"
0R"
0!#
0L#
0e#
0z#
0'$
#30000000
1!
1#
b00000001010000000000000100010011 %
b00000000000000000000000000001000 &
1(
1*
b00000000000000000000000000001010 /
b00001 2
1I
b00000001010000000000000100010011 M
b00000000000000000000000000001000 N
b00000000000000000000000000001100 O
b00000001111000000000000110010011 P
1Q
b00000000000000000000000000001100 U
b00000000000000000000000000001100 V
b00000000000000000000000000010000 W
b00000000000000000000000000010000 X
b00000000000000000000000000001100 Y
b00000001111000000000000110010011 Z
1[
b00000001111000000000000110010011 ]
b00000000000000000000000000001100 ^
b00000001010000000000000100010011 _
b00000000000000000000000000001000 `
b00000000000000000000000000001000 a
b00000001010000000000000100010011 b
1c
b00000001010000000000000100010011 e
b00000000000000000000000000001000 f
1l
1n
b00000000000000000000000000001010 s
b00001 v
b10100 {
b00000001010000000000000100010011 |
b00000000000000000000000000010100 ("
b00010 +"
b00000001010000000000000100010011 ."
b10100 1"
b00010 2"
b00000001010000000000000100010011 5"
1A"
b10100 D"
b00000001010000000000000100010011 J"
b00000000000000000000000000010100 K"
b00000000000000000000000000010100 L"
b00000000000000000000000000000010 M"
b00000000000000000000000000000010 N"
b00000000000000000000000000010100 O"
b00000001010000000000000000000000 P"
1R"
b00000000000000000000000000010100 \"
b00010 _"
1c"
1e"
b00000000000000000000000000001010 j"
b00001 m"
1q"
1s"
b00000000000000000000000000001010 x"
b00001 {"
1!#
1$#
1&#
b00000000000000000000000000001010 +#
b00001 .#
b00000000000000000000000000001010 <#
b00000000000000000000000000001010 >#
b00000000000000000000000000001010 A#
b00000000000000000000000000001010 C#
b00000000000000000000000000001010 E#
1L#
1P#
b00001 U#
b00000000000000000000000000001010 W#
1e#
1z#
1'$
#35000000
0!
0#
0I
0Q
0[
0c
0A"
0R"
0!#
0L#
0e#
0z#
0'$
#40000000
1!
1#
b00000001111000000000000110010011 %
b00000000000000000000000000001100 &
b00000000000000000000000000010100 /
b00010 2
17
b00001 <
b00000000000000000000000000001010 >
1I
b00000001111000000000000110010011 M
b00000000000000000000000000001100 N
b00000000000000000000000000010000 O
b00000010100000000000001000010011 P
1Q
b00000000000000000000000000010000 U
b00000000000000000000000000010000 V
b00000000000000000000000000010100 W
b00000000000000000000000000010100 X
b00000000000000000000000000010000 Y
b00000010100000000000001000010011 Z
1[
b00000010100000000000001000010011 ]
b00000000000000000000000000010000 ^
b00000001111000000000000110010011 _
b00000000000000000000000000001100 `
b00000000000000000000000000001100 a
b00000001111000000000000110010011 b
1c
b00000001111000000000000110010011 e
b00000000000000000000000000001100 f
b00000000000000000000000000010100 s
b00010 v
b11110 {
b00000001111000000000000110010011 |
b00000000000000000000000000011110 ("
b00011 +"
b00000001111000000000000110010011 ."
b11110 1"
b00011 2"
b00000001111000000000000110010011 5"
1A"
b11110 D"
b00000001111000000000000110010011 J"
b00000000000000000000000000011110 K"
b00000000000000000000000000011110 L"
b00000000000000000000000000000011 M"
b00000000000000000000100000000010 N"
b00000000000000000000000000011110 O"
b00000001111000000000000000000000 P"
1R"
b00000000000000000000000000011110 \"
b00011 _"
b00000000000000000000000000010100 j"
b00010 m"
b00000000000000000000000000010100 x"
b00010 {"
1!#
b00000000000000000000000000010100 +#
b00010 .#
13#
b00001 8#
b00000000000000000000000000001010 :#
b00000000000000000000000000010100 <#
b00000000000000000000000000010100 >#
b00000000000000000000000000010100 A#
b00000000000000000000000000010100 C#
b00000000000000000000000000010100 E#
1L#
b00010 U#
b00000000000000000000000000010100 W#
1[#
b00001 `#
b00000000000000000000000000001010 b#
b0010000000000100000000000000000000000000000101000000000000000000000000000000000 d#
1e#
1i#
b00001 n#
b00000000000000000000000000001010 p#
1z#
b00000000000000000000000000001010 !$
b1010 %$
1'$
1*$
b00001 +$
b00000000000000000000000000001010 ,$
#45000000
0!
0#
0I
0Q
0[
0c
0A"
0R"
0!#
0L#
0e#
0z#
0'$
#50000000
1!
1#
b00000010100000000000001000010011 %
b00000000000000000000000000010000 &
b00000000000000000000000000011110 /
b00011 2
b00010 <
b00000000000000000000000000010100 >
1A
b00001 B
b00000000000000000000000000001010 C
b00000000000000000000000000001010 H
1I
b00000010100000000000001000010011 M
b00000000000000000000000000010000 N
b00000000000000000000000000010100 O
b00000011001000000000001010010011 P
1Q
b00000000000000000000000000010100 U
b00000000000000000000000000010100 V
b00000000000000000000000000011000 W
b00000000000000000000000000011000 X
b00000000000000000000000000010100 Y
b00000011001000000000001010010011 Z
1[
b00000011001000000000001010010011 ]
b00000000000000000000000000010100 ^
b00000010100000000000001000010011 _
b00000000000000000000000000010000 `
b00000000000000000000000000010000 a
b00000010100000000000001000010011 b
1c
b00000010100000000000001000010011 e
b00000000000000000000000000010000 f
b00001 h
1i
b00000000000000000000000000001010 j
b00000000000000000000000000011110 s
b00011 v
b01000 {
b00000010100000000000001000010011 |
b00000000000000000000000000101000 ("
b00100 +"
b00000010100000000000001000010011 ."
b01000 1"
b00100 2"
b00000010100000000000001000010011 5"
1A"
b01000 D"
b00001 E"
b00000000000000000000000000001010 F"
1G"
b00000010100000000000001000010011 J"
b00000000000000000000000000101000 K"
b00000000000000000000000000101000 L"
b00000000000000000000000000100100 M"
b00000000000000000000000000100100 N"
b00000000000000000000000000101000 O"
b00000010100000000000000000000000 P"
1R"
b00000000000000000000000000101000 \"
b00100 _"
b00000000000000000000000000011110 j"
b00011 m"
b00000000000000000000000000011110 x"
b00011 {"
1!#
b00000000000000000000000000011110 +#
b00011 .#
b00010 8#
b00000000000000000000000000010100 :#
b00000000000000000000000000011110 <#
b00000000000000000000000000011110 >#
b00000000000000000000000000011110 A#
b00000000000000000000000000011110 C#
b00000000000000000000000000011110 E#
1L#
b00011 U#
b00000000000000000000000000011110 W#
b00010 `#
b00000000000000000000000000010100 b#
b0010000000001000000000000000000000000000001010000000000000000000000000000000000 d#
1e#
b00010 n#
b00000000000000000000000000010100 p#
1s#
b00001 t#
b00000000000000000000000000001010 u#
1z#
b00000000000000000000000000010100 !$
b10100 %$
1'$
b00010 +$
b00000000000000000000000000010100 ,$
1/$
b00001 0$
b00000000000000000000000000001010 1$
b01000010000000000000000000000000000101000000000000000000000000000000000 3$
#55000000
0!
0#
0I
0Q
0[
0c
0A"
0R"
0!#
0L#
0e#
0z#
0'$
#60000000
1!
1#
b00000011001000000000001010010011 %
b00000000000000000000000000010100 &
b00000000000000000000000000101000 /
b00100 2
b00011 <
b00000000000000000000000000011110 >
b00010 B
b00000000000000000000000000010100 C
b00000000000000000000000000010100 H
1I
b00000011001000000000001010010011 M
b00000000000000000000000000010100 N
b00000000000000000000000000011000 O
b00000000001000001000001100110011 P
1Q
b00000000000000000000000000011000 U
b00000000000000000000000000011000 V
b00000000000000000000000000011100 W
b00000000000000000000000000011100 X
b00000000000000000000000000011000 Y
b00000000001000001000001100110011 Z
1[
b00000000001000001000001100110011 ]
b00000000000000000000000000011000 ^
b00000011001000000000001010010011 _
b00000000000000000000000000010100 `
b00000000000000000000000000010100 a
b00000011001000000000001010010011 b
1c
b00000011001000000000001010010011 e
b00000000000000000000000000010100 f
b00010 h
b00000000000000000000000000010100 j
b00000000000000000000000000101000 s
b00100 v
b10010 {
b00000011001000000000001010010011 |
b00000000000000000000000000110010 ("
b00101 +"
b00000011001000000000001010010011 ."
b10010 1"
b00101 2"
b00000011001000000000001010010011 5"
1A"
b10010 D"
b00010 E"
b00000000000000000000000000010100 F"
b00000011001000000000001010010011 J"
b00000000000000000000000000110010 K"
b00000000000000000000000000110010 L"
b00000000000000000000000000100101 M"
b00000000000000000000100000100100 N"
b00000000000000000000000000110010 O"
b00000011001000000000000000000000 P"
1R"
b00000000000000000000000000110010 \"
b00101 _"
b00000000000000000000000000101000 j"
b00100 m"
b00000000000000000000000000101000 x"
b00100 {"
1!#
b00000000000000000000000000101000 +#
b00100 .#
b00011 8#
b00000000000000000000000000011110 :#
b00000000000000000000000000101000 <#
b00000000000000000000000000101000 >#
b00000000000000000000000000101000 A#
b00000000000000000000000000101000 C#
b00000000000000000000000000101000 E#
1L#
b00100 U#
b00000000000000000000000000101000 W#
b00011 `#
b00000000000000000000000000011110 b#
b0010000000001100000000000000000000000000001111000000000000000000000000000000000 d#
1e#
b00011 n#
b00000000000000000000000000011110 p#
b00010 t#
b00000000000000000000000000010100 u#
1z#
b00000000000000000000000000011110 !$
b11110 %$
1'$
b00011 +$
b00000000000000000000000000011110 ,$
b00010 0$
b00000000000000000000000000010100 1$
b01000100000000000000000000000000001010000000000000000000000000000000000 3$
#65000000
0!
0#
0I
0Q
0[
0c
0A"
0R"
0!#
0L#
0e#
0z#
0'$
