sim/tb_cache_miss/wave.vcd
$date
  Tue Apr 15 18:55:02 2025
$end
$version
  GHDL v0
$end
$timescale
  1 fs
$end
$scope module standard $end
$upscope $end
$scope module textio $end
$upscope $end
$scope module std_logic_1164 $end
$upscope $end
$scope module numeric_std $end
$upscope $end
$scope module math_real $end
$upscope $end
$scope module tb_cache_miss $end
$var reg 1 ! clk $end
$var reg 1 " reset $end
$var reg 32 # addr[31:0] $end
$var reg 32 $ din[31:0] $end
$var reg 1 % we $end
$var reg 1 & re $end
$var reg 3 ' funct3[2:0] $end
$var reg 32 ( dout[31:0] $end
$var reg 1 ) miss $end
$var reg 1 * sim_done $end
$scope module uut $end
$var reg 1 + clk $end
$var reg 1 , reset $end
$var reg 32 - addr[31:0] $end
$var reg 32 . din[31:0] $end
$var reg 1 / we $end
$var reg 1 0 re $end
$var reg 3 1 funct3[2:0] $end
$var reg 32 2 dout[31:0] $end
$var reg 1 3 miss $end
$comment data is not handled $end
$comment tag is not handled $end
$var reg 4 4 valid[0:3] $end
$var integer 32 5 index $end
$var reg 28 6 addr_tag[27:0] $end
$var reg 1 7 hit $end
$var integer 32 8 byte_offset $end
$var reg 32 9 word_data[31:0] $end
$var reg 8 : byte_data[7:0] $end
$var reg 16 ; half_data[15:0] $end
$var reg 1 < ram_we $end
$var reg 1 = ram_re $end
$var reg 32 > ram_dout[31:0] $end
$var reg 32 ? dout_comb[31:0] $end
$comment state is not handled $end
$scope module ram_inst $end
$var reg 1 @ clk $end
$var reg 1 A reset $end
$var reg 1 B we $end
$var reg 1 C re $end
$var reg 32 D addr[31:0] $end
$var reg 32 E din[31:0] $end
$var reg 3 F funct3[2:0] $end
$var reg 32 G dout[31:0] $end
$comment memory is not handled $end
$var integer 32 H aligned_addr $end
$var reg 32 I dout_aux[31:0] $end
$upscope $end
$upscope $end
$upscope $end
$enddefinitions $end
#0
0!
1"
b00000000000000000000000000000000 #
b00000000000000000000000000000000 $
0%
0&
b000 '
b00000000000000000000000000000000 (
0)
0*
0+
1,
b00000000000000000000000000000000 -
b00000000000000000000000000000000 .
0/
00
b000 1
b00000000000000000000000000000000 2
03
b0000 4
b0 5
b0000000000000000000000000000 6
07
b0 8
bUUUUUUUUUUUUUUUUUUUUUUUUUUUUUUUU 9
bUUUUUUUU :
bUUUUUUUUUUUUUUUU ;
0<
0=
b00000000000000000000000000000000 >
b00000000000000000000000000000000 ?
0@
1A
0B
0C
b00000000000000000000000000000000 D
b00000000000000000000000000000000 E
b000 F
b00000000000000000000000000000000 G
b0 H
b00000000000000000000000000000000 I
#5000000
1!
1+
1@
#10000000
0!
0+
0@
#15000000
1!
0"
1+
0,
1@
0A
#20000000
0!
0+
0@
#25000000
1!
b00000000000000001010101000000000 $
1%
b010 '
1+
b00000000000000001010101000000000 .
1/
b010 1
1@
b00000000000000001010101000000000 E
b010 F
#30000000
0!
0+
0@
#35000000
1!
1+
b1000 4
17
1<
1@
1B
#40000000
0!
0+
0@
#45000000
1!
0%
1+
0/
0<
1@
0B
#50000000
0!
0+
0@
#55000000
1!
b00000000000000000000000000000100 #
b00000000000000001010101000000001 $
1%
1+
b00000000000000000000000000000100 -
b00000000000000001010101000000001 .
1/
b1 5
07
1@
b00000000000000000000000000000100 D
b00000000000000001010101000000001 E
b100 H
#60000000
0!
0+
0@
#65000000
1!
1+
b1100 4
17
1<
1@
1B
#70000000
0!
0+
0@
#75000000
1!
0%
1+
0/
0<
1@
0B
#80000000
0!
0+
0@
#85000000
1!
b00000000000000000000000000001000 #
b00000000000000001010101000000010 $
1%
1+
b00000000000000000000000000001000 -
b00000000000000001010101000000010 .
1/
b10 5
07
1@
b00000000000000000000000000001000 D
b00000000000000001010101000000010 E
b1000 H
#90000000
0!
0+
0@
#95000000
1!
1+
b1110 4
17
1<
1@
1B
#100000000
0!
0+
0@
#105000000
1!
0%
1+
0/
0<
1@
0B
#110000000
0!
0+
0@
#115000000
1!
b00000000000000000000000000001100 #
b00000000000000001010101000000011 $
1%
1+
b00000000000000000000000000001100 -
b00000000000000001010101000000011 .
1/
b11 5
07
1@
b00000000000000000000000000001100 D
b00000000000000001010101000000011 E
b1100 H
#120000000
0!
0+
0@
#125000000
1!
1+
b1111 4
17
1<
1@
1B
#130000000
0!
0+
0@
#135000000
1!
0%
1+
0/
0<
1@
0B
#140000000
0!
0+
0@
#145000000
1!
b00000000000000000000000000010000 #
b00000000000000001010101000000100 $
1%
1+
b00000000000000000000000000010000 -
b00000000000000001010101000000100 .
1/
b0 5
b0000000000000000000000000001 6
07
1@
b00000000000000000000000000010000 D
b00000000000000001010101000000100 E
b10000 H
#150000000
0!
0+
0@
#155000000
1!
1+
17
1<
1@
1B
#160000000
0!
0+
0@
#165000000
1!
0%
1+
0/
0<
1@
0B
#170000000
0!
0+
0@
#175000000
1!
b00000000000000000000000000010100 #
b00000000000000001010101000000101 $
1%
1+
b00000000000000000000000000010100 -
b00000000000000001010101000000101 .
1/
b1 5
07
1@
b00000000000000000000000000010100 D
b00000000000000001010101000000101 E
b10100 H
#180000000
0!
0+
0@
#185000000
1!
1+
17
1<
1@
1B
#190000000
0!
0+
0@
#195000000
1!
0%
1+
0/
0<
1@
0B
#200000000
0!
0+
0@
#205000000
1!
b00000000000000000000000000011000 #
b00000000000000001010101000000110 $
1%
1+
b00000000000000000000000000011000 -
b00000000000000001010101000000110 .
1/
b10 5
07
1@
b00000000000000000000000000011000 D
b00000000000000001010101000000110 E
b11000 H
#210000000
0!
0+
0@
#215000000
1!
1+
17
1<
1@
1B
#220000000
0!
0+
0@
#225000000
1!
0%
1+
0/
0<
1@
0B
#230000000
0!
0+
0@
#235000000
1!
b00000000000000000000000000011100 #
b00000000000000001010101000000111 $
1%
1+
b00000000000000000000000000011100 -
b00000000000000001010101000000111 .
1/
b11 5
07
1@
b00000000000000000000000000011100 D
b00000000000000001010101000000111 E
b11100 H
#240000000
0!
0+
0@
#245000000
1!
1+
17
1<
1@
1B
#250000000
0!
0+
0@
#255000000
1!
0%
1+
0/
0<
1@
0B
#260000000
0!
0+
0@
#265000000
1!
b00000000000000000000000000100000 #
b00000000000000001010101000001000 $
1%
1+
b00000000000000000000000000100000 -
b00000000000000001010101000001000 .
1/
b0 5
b0000000000000000000000000010 6
07
1@
b00000000000000000000000000100000 D
b00000000000000001010101000001000 E
b100000 H
#270000000
0!
0+
0@
#275000000
1!
1+
17
1<
1@
1B
#280000000
0!
0+
0@
#285000000
1!
0%
1+
0/
0<
1@
0B
#290000000
0!
0+
0@
#295000000
1!
b00000000000000000000000000100100 #
b00000000000000001010101000001001 $
1%
1+
b00000000000000000000000000100100 -
b00000000000000001010101000001001 .
1/
b1 5
07
1@
b00000000000000000000000000100100 D
b00000000000000001010101000001001 E
b100100 H
#300000000
0!
0+
0@
#305000000
1!
1+
17
1<
1@
1B
#310000000
0!
0+
0@
#315000000
1!
0%
1+
0/
0<
1@
0B
#320000000
0!
0+
0@
#325000000
1!
b00000000000000000000000000101000 #
b00000000000000001010101000001010 $
1%
1+
b00000000000000000000000000101000 -
b00000000000000001010101000001010 .
1/
b10 5
07
1@
b00000000000000000000000000101000 D
b00000000000000001010101000001010 E
b101000 H
#330000000
0!
0+
0@
#335000000
1!
1+
17
1<
1@
1B
#340000000
0!
0+
0@
#345000000
1!
0%
1+
0/
0<
1@
0B
#350000000
0!
0+
0@
#355000000
1!
b00000000000000000000000000101100 #
b00000000000000001010101000001011 $
1%
1+
b00000000000000000000000000101100 -
b00000000000000001010101000001011 .
1/
b11 5
07
1@
b00000000000000000000000000101100 D
b00000000000000001010101000001011 E
b101100 H
#360000000
0!
0+
0@
#365000000
1!
1+
17
1<
1@
1B
#370000000
0!
0+
0@
#375000000
1!
0%
1+
0/
0<
1@
0B
#380000000
0!
0+
0@
#385000000
1!
b00000000000000000000000000110000 #
b00000000000000001010101000001100 $
1%
1+
b00000000000000000000000000110000 -
b00000000000000001010101000001100 .
1/
b0 5
b0000000000000000000000000011 6
07
1@
b00000000000000000000000000110000 D
b00000000000000001010101000001100 E
b110000 H
#390000000
0!
0+
0@
#395000000
1!
1+
17
1<
1@
1B
#400000000
0!
0+
0@
#405000000
1!
0%
1+
0/
0<
1@
0B
#410000000
0!
0+
0@
#415000000
1!
b00000000000000000000000000110100 #
b00000000000000001010101000001101 $
1%
1+
b00000000000000000000000000110100 -
b00000000000000001010101000001101 .
1/
b1 5
07
1@
b00000000000000000000000000110100 D
b00000000000000001010101000001101 E
b110100 H
#420000000
0!
0+
0@
#425000000
1!
1+
17
1<
1@
1B
#430000000
0!
0+
0@
#435000000
1!
0%
1+
0/
0<
1@
0B
#440000000
0!
0+
0@
#445000000
1!
b00000000000000000000000000111000 #
b00000000000000001010101000001110 $
1%
1+
b00000000000000000000000000111000 -
b00000000000000001010101000001110 .
1/
b10 5
07
1@
b00000000000000000000000000111000 D
b00000000000000001010101000001110 E
b111000 H
#450000000
0!
0+
0@
#455000000
1!
1+
17
1<
1@
1B
#460000000
0!
0+
0@
#465000000
1!
0%
1+
0/
0<
1@
0B
#470000000
0!
0+
0@
#475000000
1!
b00000000000000000000000000111100 #
b00000000000000001010101000001111 $
1%
1+
b00000000000000000000000000111100 -
b00000000000000001010101000001111 .
1/
b11 5
07
1@
b00000000000000000000000000111100 D
b00000000000000001010101000001111 E
b111100 H
#480000000
0!
0+
0@
#485000000
1!
1+
17
1<
1@
1B
#490000000
0!
0+
0@
#495000000
1!
0%
1+
0/
0<
1@
0B
#500000000
0!
0+
0@
#505000000
1!
b00000000000000000000000000000000 #
1&
b00000000000000001010101000001111 (
1)
1+
b00000000000000000000000000000000 -
10
b00000000000000001010101000001111 2
13
b0 5
b0000000000000000000000000000 6
07
b00000000000000001010101000001111 ?
1@
b00000000000000000000000000000000 D
b0 H
b00000000000000001010101000000000 I
#510000000
0!
b00000000000000000000000000000000 (
0+
b00000000000000000000000000000000 2
b00000000000000000000000000000000 ?
0@
#515000000
1!
1+
1=
b00000000000000001010101000000000 >
1@
1C
b00000000000000001010101000000000 G
#520000000
0!
0+
0@
#525000000
1!
0&
0)
1+
00
03
17
0=
b00000000000000000000000000000000 >
1@
0C
b00000000000000000000000000000000 G
#530000000
0!
0+
0@
#535000000
1!
1+
1@
#540000000
0!
0+
0@
#545000000
1!
b00000000000000000000000000000100 #
1&
b00000000000000001010101000000000 (
1)
1+
b00000000000000000000000000000100 -
10
b00000000000000001010101000000000 2
13
b1 5
07
b00000000000000001010101000000000 ?
1@
b00000000000000000000000000000100 D
b100 H
b00000000000000001010101000000001 I
#550000000
0!
b00000000000000000000000000000000 (
0+
b00000000000000000000000000000000 2
b00000000000000000000000000000000 ?
0@
#555000000
1!
1+
1=
b00000000000000001010101000000001 >
1@
1C
b00000000000000001010101000000001 G
#560000000
0!
0+
0@
#565000000
1!
0&
0)
1+
00
03
17
0=
b00000000000000000000000000000000 >
1@
0C
b00000000000000000000000000000000 G
#570000000
0!
0+
0@
#575000000
1!
1+
1@
#580000000
0!
0+
0@
#585000000
1!
b00000000000000000000000000001000 #
1&
b00000000000000001010101000000001 (
1)
1+
b00000000000000000000000000001000 -
10
b00000000000000001010101000000001 2
13
b10 5
07
b00000000000000001010101000000001 ?
1@
b00000000000000000000000000001000 D
b1000 H
b00000000000000001010101000000010 I
#590000000
0!
b00000000000000000000000000000000 (
0+
b00000000000000000000000000000000 2
b00000000000000000000000000000000 ?
0@
#595000000
1!
1+
1=
b00000000000000001010101000000010 >
1@
1C
b00000000000000001010101000000010 G
#600000000
0!
0+
0@
#605000000
1!
0&
0)
1+
00
03
17
0=
b00000000000000000000000000000000 >
1@
0C
b00000000000000000000000000000000 G
#610000000
0!
0+
0@
#615000000
1!
1+
1@
#620000000
0!
0+
0@
#625000000
1!
b00000000000000000000000000001100 #
1&
b00000000000000001010101000000010 (
1)
1+
b00000000000000000000000000001100 -
10
b00000000000000001010101000000010 2
13
b11 5
07
b00000000000000001010101000000010 ?
1@
b00000000000000000000000000001100 D
b1100 H
b00000000000000001010101000000011 I
#630000000
0!
b00000000000000000000000000000000 (
0+
b00000000000000000000000000000000 2
b00000000000000000000000000000000 ?
0@
#635000000
1!
1+
1=
b00000000000000001010101000000011 >
1@
1C
b00000000000000001010101000000011 G
#640000000
0!
0+
0@
#645000000
1!
0&
0)
1+
00
03
17
0=
b00000000000000000000000000000000 >
1@
0C
b00000000000000000000000000000000 G
#650000000
0!
0+
0@
#655000000
1!
1+
1@
#660000000
0!
0+
0@
#665000000
1!
b00000000000000000000000000010000 #
1&
b00000000000000001010101000000011 (
1)
1+
b00000000000000000000000000010000 -
10
b00000000000000001010101000000011 2
13
b0 5
b0000000000000000000000000001 6
07
b00000000000000001010101000000011 ?
1@
b00000000000000000000000000010000 D
b10000 H
b00000000000000001010101000000100 I
#670000000
0!
b00000000000000000000000000000000 (
0+
b00000000000000000000000000000000 2
b00000000000000000000000000000000 ?
0@
#675000000
1!
1+
1=
b00000000000000001010101000000100 >
1@
1C
b00000000000000001010101000000100 G
#680000000
0!
0+
0@
#685000000
1!
0&
0)
1+
00
03
17
0=
b00000000000000000000000000000000 >
1@
0C
b00000000000000000000000000000000 G
#690000000
0!
0+
0@
#695000000
1!
1+
1@
#700000000
0!
0+
0@
#705000000
1!
b00000000000000000000000000010100 #
1&
b00000000000000001010101000000100 (
1)
1+
b00000000000000000000000000010100 -
10
b00000000000000001010101000000100 2
13
b1 5
07
b00000000000000001010101000000100 ?
1@
b00000000000000000000000000010100 D
b10100 H
b00000000000000001010101000000101 I
#710000000
0!
b00000000000000000000000000000000 (
0+
b00000000000000000000000000000000 2
b00000000000000000000000000000000 ?
0@
#715000000
1!
1+
1=
b00000000000000001010101000000101 >
1@
1C
b00000000000000001010101000000101 G
#720000000
0!
0+
0@
#725000000
1!
0&
0)
1+
00
03
17
0=
b00000000000000000000000000000000 >
1@
0C
b00000000000000000000000000000000 G
#730000000
0!
0+
0@
#735000000
1!
1+
1@
#740000000
0!
0+
0@
#745000000
1!
b00000000000000000000000000011000 #
1&
b00000000000000001010101000000101 (
1)
1+
b00000000000000000000000000011000 -
10
b00000000000000001010101000000101 2
13
b10 5
07
b00000000000000001010101000000101 ?
1@
b00000000000000000000000000011000 D
b11000 H
b00000000000000001010101000000110 I
#750000000
0!
b00000000000000000000000000000000 (
0+
b00000000000000000000000000000000 2
b00000000000000000000000000000000 ?
0@
#755000000
1!
1+
1=
b00000000000000001010101000000110 >
1@
1C
b00000000000000001010101000000110 G
#760000000
0!
0+
0@
#765000000
1!
0&
0)
1+
00
03
17
0=
b00000000000000000000000000000000 >
1@
0C
b00000000000000000000000000000000 G
#770000000
0!
0+
0@
#775000000
1!
1+
1@
#780000000
0!
0+
0@
#785000000
1!
b00000000000000000000000000011100 #
1&
b00000000000000001010101000000110 (
1)
1+
b00000000000000000000000000011100 -
10
b00000000000000001010101000000110 2
13
b11 5
07
b00000000000000001010101000000110 ?
1@
b00000000000000000000000000011100 D
b11100 H
b00000000000000001010101000000111 I
#790000000
0!
b00000000000000000000000000000000 (
0+
b00000000000000000000000000000000 2
b00000000000000000000000000000000 ?
0@
#795000000
1!
1+
1=
b00000000000000001010101000000111 >
1@
1C
b00000000000000001010101000000111 G
#800000000
0!
0+
0@
#805000000
1!
0&
0)
1+
00
03
17
0=
b00000000000000000000000000000000 >
1@
0C
b00000000000000000000000000000000 G
#810000000
0!
0+
0@
#815000000
1!
1+
1@
#820000000
0!
0+
0@
#825000000
1!
b00000000000000000000000000100000 #
1&
b00000000000000001010101000000111 (
1)
1+
b00000000000000000000000000100000 -
10
b00000000000000001010101000000111 2
13
b0 5
b0000000000000000000000000010 6
07
b00000000000000001010101000000111 ?
1@
b00000000000000000000000000100000 D
b100000 H
b00000000000000001010101000001000 I
#830000000
0!
b00000000000000000000000000000000 (
0+
b00000000000000000000000000000000 2
b00000000000000000000000000000000 ?
0@
#835000000
1!
1+
1=
b00000000000000001010101000001000 >
1@
1C
b00000000000000001010101000001000 G
#840000000
0!
0+
0@
#845000000
1!
0&
0)
1+
00
03
17
0=
b00000000000000000000000000000000 >
1@
0C
b00000000000000000000000000000000 G
#850000000
0!
0+
0@
#855000000
1!
1+
1@
#860000000
0!
0+
0@
#865000000
1!
b00000000000000000000000000100100 #
1&
b00000000000000001010101000001000 (
1)
1+
b00000000000000000000000000100100 -
10
b00000000000000001010101000001000 2
13
b1 5
07
b00000000000000001010101000001000 ?
1@
b00000000000000000000000000100100 D
b100100 H
b00000000000000001010101000001001 I
#870000000
0!
b00000000000000000000000000000000 (
0+
b00000000000000000000000000000000 2
b00000000000000000000000000000000 ?
0@
#875000000
1!
1+
1=
b00000000000000001010101000001001 >
1@
1C
b00000000000000001010101000001001 G
#880000000
0!
0+
0@
#885000000
1!
0&
0)
1+
00
03
17
0=
b00000000000000000000000000000000 >
1@
0C
b00000000000000000000000000000000 G
#890000000
0!
0+
0@
#895000000
1!
1+
1@
#900000000
0!
0+
0@
#905000000
1!
b00000000000000000000000000101000 #
1&
b00000000000000001010101000001001 (
1)
1+
b00000000000000000000000000101000 -
10
b00000000000000001010101000001001 2
13
b10 5
07
b00000000000000001010101000001001 ?
1@
b00000000000000000000000000101000 D
b101000 H
b00000000000000001010101000001010 I
#910000000
0!
b00000000000000000000000000000000 (
0+
b00000000000000000000000000000000 2
b00000000000000000000000000000000 ?
0@
#915000000
1!
1+
1=
b00000000000000001010101000001010 >
1@
1C
b00000000000000001010101000001010 G
#920000000
0!
0+
0@
#925000000
1!
0&
0)
1+
00
03
17
0=
b00000000000000000000000000000000 >
1@
0C
b00000000000000000000000000000000 G
#930000000
0!
0+
0@
#935000000
1!
1+
1@
#940000000
0!
0+
0@
#945000000
1!
b00000000000000000000000000101100 #
1&
b00000000000000001010101000001010 (
1)
1+
b00000000000000000000000000101100 -
10
b00000000000000001010101000001010 2
13
b11 5
07
b00000000000000001010101000001010 ?
1@
b00000000000000000000000000101100 D
b101100 H
b00000000000000001010101000001011 I
#950000000
0!
b00000000000000000000000000000000 (
0+
b00000000000000000000000000000000 2
b00000000000000000000000000000000 ?
0@
#955000000
1!
1+
1=
b00000000000000001010101000001011 >
1@
1C
b00000000000000001010101000001011 G
#960000000
0!
0+
0@
#965000000
1!
0&
0)
1+
00
03
17
0=
b00000000000000000000000000000000 >
1@
0C
b00000000000000000000000000000000 G
#970000000
0!
0+
0@
#975000000
1!
1+
1@
#980000000
0!
0+
0@
#985000000
1!
b00000000000000000000000000110000 #
1&
b00000000000000001010101000001011 (
1)
1+
b00000000000000000000000000110000 -
10
b00000000000000001010101000001011 2
13
b0 5
b0000000000000000000000000011 6
07
b00000000000000001010101000001011 ?
1@
b00000000000000000000000000110000 D
b110000 H
b00000000000000001010101000001100 I
#990000000
0!
b00000000000000000000000000000000 (
0+
b00000000000000000000000000000000 2
b00000000000000000000000000000000 ?
0@
#995000000
1!
1+
1=
b00000000000000001010101000001100 >
1@
1C
b00000000000000001010101000001100 G
#1000000000
0!
0+
0@
#1005000000
1!
0&
0)
1+
00
03
17
0=
b00000000000000000000000000000000 >
1@
0C
b00000000000000000000000000000000 G
#1010000000
0!
0+
0@
#1015000000
1!
1+
1@
#1020000000
0!
0+
0@
#1025000000
1!
b00000000000000000000000000110100 #
1&
b00000000000000001010101000001100 (
1)
1+
b00000000000000000000000000110100 -
10
b00000000000000001010101000001100 2
13
b1 5
07
b00000000000000001010101000001100 ?
1@
b00000000000000000000000000110100 D
b110100 H
b00000000000000001010101000001101 I
#1030000000
0!
b00000000000000000000000000000000 (
0+
b00000000000000000000000000000000 2
b00000000000000000000000000000000 ?
0@
#1035000000
1!
1+
1=
b00000000000000001010101000001101 >
1@
1C
b00000000000000001010101000001101 G
#1040000000
0!
0+
0@
#1045000000
1!
0&
0)
1+
00
03
17
0=
b00000000000000000000000000000000 >
1@
0C
b00000000000000000000000000000000 G
#1050000000
0!
0+
0@
#1055000000
1!
1+
1@
#1060000000
0!
0+
0@
#1065000000
1!
b00000000000000000000000000111000 #
1&
b00000000000000001010101000001101 (
1)
1+
b00000000000000000000000000111000 -
10
b00000000000000001010101000001101 2
13
b10 5
07
b00000000000000001010101000001101 ?
1@
b00000000000000000000000000111000 D
b111000 H
b00000000000000001010101000001110 I
#1070000000
0!
b00000000000000000000000000000000 (
0+
b00000000000000000000000000000000 2
b00000000000000000000000000000000 ?
0@
#1075000000
1!
1+
1=
b00000000000000001010101000001110 >
1@
1C
b00000000000000001010101000001110 G
#1080000000
0!
0+
0@
#1085000000
1!
0&
0)
1+
00
03
17
0=
b00000000000000000000000000000000 >
1@
0C
b00000000000000000000000000000000 G
#1090000000
0!
0+
0@
#1095000000
1!
1+
1@
#1100000000
0!
0+
0@
#1105000000
1!
b00000000000000000000000000111100 #
1&
b00000000000000001010101000001110 (
1)
1+
b00000000000000000000000000111100 -
10
b00000000000000001010101000001110 2
13
b11 5
07
b00000000000000001010101000001110 ?
1@
b00000000000000000000000000111100 D
b111100 H
b00000000000000001010101000001111 I
#1110000000
0!
b00000000000000000000000000000000 (
0+
b00000000000000000000000000000000 2
b00000000000000000000000000000000 ?
0@
#1115000000
1!
1+
1=
b00000000000000001010101000001111 >
1@
1C
b00000000000000001010101000001111 G
#1120000000
0!
0+
0@
#1125000000
1!
0&
0)
1+
00
03
17
0=
b00000000000000000000000000000000 >
1@
0C
b00000000000000000000000000000000 G
#1130000000
0!
0+
0@
#1135000000
1!
1+
1@
#1140000000
0!
0+
0@
#1145000000
1!
b00000000000000000000000001000000 #
b00000000000000001011101100010000 $
1%
1+
b00000000000000000000000001000000 -
b00000000000000001011101100010000 .
1/
b0 5
b0000000000000000000000000100 6
07
1@
b00000000000000000000000001000000 D
b00000000000000001011101100010000 E
b1000000 H
b00000000000000000000000000000000 I
#1150000000
0!
0+
0@
#1155000000
1!
1+
17
1<
1@
1B
#1160000000
0!
0+
0@
#1165000000
1!
0%
1+
0/
0<
1@
0B
#1170000000
0!
0+
0@
#1175000000
1!
b00000000000000000000000001000100 #
b00000000000000001011101100010001 $
1%
1+
b00000000000000000000000001000100 -
b00000000000000001011101100010001 .
1/
b1 5
07
1@
b00000000000000000000000001000100 D
b00000000000000001011101100010001 E
b1000100 H
#1180000000
0!
0+
0@
#1185000000
1!
1+
17
1<
1@
1B
#1190000000
0!
0+
0@
#1195000000
1!
0%
1+
0/
0<
1@
0B
#1200000000
0!
0+
0@
#1205000000
1!
b00000000000000000000000001001000 #
b00000000000000001011101100010010 $
1%
1+
b00000000000000000000000001001000 -
b00000000000000001011101100010010 .
1/
b10 5
07
1@
b00000000000000000000000001001000 D
b00000000000000001011101100010010 E
b1001000 H
#1210000000
0!
0+
0@
#1215000000
1!
1+
17
1<
1@
1B
#1220000000
0!
0+
0@
#1225000000
1!
0%
1+
0/
0<
1@
0B
#1230000000
0!
0+
0@
#1235000000
1!
b00000000000000000000000001001100 #
b00000000000000001011101100010011 $
1%
1+
b00000000000000000000000001001100 -
b00000000000000001011101100010011 .
1/
b11 5
07
1@
b00000000000000000000000001001100 D
b00000000000000001011101100010011 E
b1001100 H
#1240000000
0!
0+
0@
#1245000000
1!
1+
17
1<
1@
1B
#1250000000
0!
0+
0@
#1255000000
1!
0%
1+
0/
0<
1@
0B
#1260000000
0!
0+
0@
#1265000000
1!
b00000000000000000000000001010000 #
b00000000000000001011101100010100 $
1%
1+
b00000000000000000000000001010000 -
b00000000000000001011101100010100 .
1/
b0 5
b0000000000000000000000000101 6
07
1@
b00000000000000000000000001010000 D
b00000000000000001011101100010100 E
b1010000 H
#1270000000
0!
0+
0@
#1275000000
1!
1+
17
1<
1@
1B
#1280000000
0!
0+
0@
#1285000000
1!
0%
1+
0/
0<
1@
0B
#1290000000
0!
0+
0@
#1295000000
1!
b00000000000000000000000001010100 #
b00000000000000001011101100010101 $
1%
1+
b00000000000000000000000001010100 -
b00000000000000001011101100010101 .
1/
b1 5
07
1@
b00000000000000000000000001010100 D
b00000000000000001011101100010101 E
b1010100 H
#1300000000
0!
0+
0@
#1305000000
1!
1+
17
1<
1@
1B
#1310000000
0!
0+
0@
#1315000000
1!
0%
1+
0/
0<
1@
0B
#1320000000
0!
0+
0@
#1325000000
1!
b00000000000000000000000001011000 #
b00000000000000001011101100010110 $
1%
1+
b00000000000000000000000001011000 -
b00000000000000001011101100010110 .
1/
b10 5
07
1@
b00000000000000000000000001011000 D
b00000000000000001011101100010110 E
b1011000 H
#1330000000
0!
0+
0@
#1335000000
1!
1+
17
1<
1@
1B
#1340000000
0!
0+
0@
#1345000000
1!
0%
1+
0/
0<
1@
0B
#1350000000
0!
0+
0@
#1355000000
1!
b00000000000000000000000001011100 #
b00000000000000001011101100010111 $
1%
1+
b00000000000000000000000001011100 -
b00000000000000001011101100010111 .
1/
b11 5
07
1@
b00000000000000000000000001011100 D
b00000000000000001011101100010111 E
b1011100 H
#1360000000
0!
0+
0@
#1365000000
1!
1+
17
1<
1@
1B
#1370000000
0!
0+
0@
#1375000000
1!
0%
1+
0/
0<
1@
0B
#1380000000
0!
0+
0@
#1385000000
1!
b00000000000000000000000001100000 #
b00000000000000001011101100011000 $
1%
1+
b00000000000000000000000001100000 -
b00000000000000001011101100011000 .
1/
b0 5
b0000000000000000000000000110 6
07
1@
b00000000000000000000000001100000 D
b00000000000000001011101100011000 E
b1100000 H
#1390000000
0!
0+
0@
#1395000000
1!
1+
17
1<
1@
1B
#1400000000
0!
0+
0@
#1405000000
1!
0%
1+
0/
0<
1@
0B
#1410000000
0!
0+
0@
#1415000000
1!
b00000000000000000000000001100100 #
b00000000000000001011101100011001 $
1%
1+
b00000000000000000000000001100100 -
b00000000000000001011101100011001 .
1/
b1 5
07
1@
b00000000000000000000000001100100 D
b00000000000000001011101100011001 E
b1100100 H
#1420000000
0!
0+
0@
#1425000000
1!
1+
17
1<
1@
1B
#1430000000
0!
0+
0@
#1435000000
1!
0%
1+
0/
0<
1@
0B
#1440000000
0!
0+
0@
#1445000000
1!
b00000000000000000000000001101000 #
b00000000000000001011101100011010 $
1%
1+
b00000000000000000000000001101000 -
b00000000000000001011101100011010 .
1/
b10 5
07
1@
b00000000000000000000000001101000 D
b00000000000000001011101100011010 E
b1101000 H
#1450000000
0!
0+
0@
#1455000000
1!
1+
17
1<
1@
1B
#1460000000
0!
0+
0@
#1465000000
1!
0%
1+
0/
0<
1@
0B
#1470000000
0!
0+
0@
#1475000000
1!
b00000000000000000000000001101100 #
b00000000000000001011101100011011 $
1%
1+
b00000000000000000000000001101100 -
b00000000000000001011101100011011 .
1/
b11 5
07
1@
b00000000000000000000000001101100 D
b00000000000000001011101100011011 E
b1101100 H
#1480000000
0!
0+
0@
#1485000000
1!
1+
17
1<
1@
1B
#1490000000
0!
0+
0@
#1495000000
1!
0%
1+
0/
0<
1@
0B
#1500000000
0!
0+
0@
#1505000000
1!
b00000000000000000000000001110000 #
b00000000000000001011101100011100 $
1%
1+
b00000000000000000000000001110000 -
b00000000000000001011101100011100 .
1/
b0 5
b0000000000000000000000000111 6
07
1@
b00000000000000000000000001110000 D
b00000000000000001011101100011100 E
b1110000 H
#1510000000
0!
0+
0@
#1515000000
1!
1+
17
1<
1@
1B
#1520000000
0!
0+
0@
#1525000000
1!
0%
1+
0/
0<
1@
0B
#1530000000
0!
0+
0@
#1535000000
1!
b00000000000000000000000001110100 #
b00000000000000001011101100011101 $
1%
1+
b00000000000000000000000001110100 -
b00000000000000001011101100011101 .
1/
b1 5
07
1@
b00000000000000000000000001110100 D
b00000000000000001011101100011101 E
b1110100 H
#1540000000
0!
0+
0@
#1545000000
1!
1+
17
1<
1@
1B
#1550000000
0!
0+
0@
#1555000000
1!
0%
1+
0/
0<
1@
0B
#1560000000
0!
0+
0@
#1565000000
1!
b00000000000000000000000001111000 #
b00000000000000001011101100011110 $
1%
1+
b00000000000000000000000001111000 -
b00000000000000001011101100011110 .
1/
b10 5
07
1@
b00000000000000000000000001111000 D
b00000000000000001011101100011110 E
b1111000 H
#1570000000
0!
0+
0@
#1575000000
1!
1+
17
1<
1@
1B
#1580000000
0!
0+
0@
#1585000000
1!
0%
1+
0/
0<
1@
0B
#1590000000
0!
0+
0@
#1595000000
1!
b00000000000000000000000001111100 #
b00000000000000001011101100011111 $
1%
1+
b00000000000000000000000001111100 -
b00000000000000001011101100011111 .
1/
b11 5
07
1@
b00000000000000000000000001111100 D
b00000000000000001011101100011111 E
b1111100 H
#1600000000
0!
0+
0@
#1605000000
1!
1+
17
1<
1@
1B
#1610000000
0!
0+
0@
#1615000000
1!
0%
1+
0/
0<
1@
0B
#1620000000
0!
0+
0@
#1625000000
1!
b00000000000000000000000000000000 #
1&
b00000000000000001011101100011111 (
1)
1+
b00000000000000000000000000000000 -
10
b00000000000000001011101100011111 2
13
b0 5
b0000000000000000000000000000 6
07
b00000000000000001011101100011111 ?
1@
b00000000000000000000000000000000 D
b0 H
b00000000000000001010101000000000 I
#1630000000
0!
b00000000000000000000000000000000 (
0+
b00000000000000000000000000000000 2
b00000000000000000000000000000000 ?
0@
#1635000000
1!
1+
1=
b00000000000000001010101000000000 >
1@
1C
b00000000000000001010101000000000 G
#1640000000
0!
0+
0@
#1645000000
1!
0&
0)
1+
00
03
17
0=
b00000000000000000000000000000000 >
1@
0C
b00000000000000000000000000000000 G
#1650000000
0!
0+
0@
#1655000000
1!
1+
1@
#1660000000
0!
0+
0@
#1665000000
1!
b00000000000000000000000000000100 #
1&
b00000000000000001010101000000000 (
1)
1+
b00000000000000000000000000000100 -
10
b00000000000000001010101000000000 2
13
b1 5
07
b00000000000000001010101000000000 ?
1@
b00000000000000000000000000000100 D
b100 H
b00000000000000001010101000000001 I
